{
  "routes": [
    {
      "method": "GET",
      "path": "/exchange-cexes",
      "handler": "exchange-cex.find",
      "config": {
        "policies": []
      }
    },
    {
      "method": "GET",
      "path": "/exchange-cexes/count",
      "handler": "exchange-cex.count",
      "config": {
        "policies": []
      }
    },
    {
      "method": "GET",
      "path": "/exchange-cexes/:id",
      "handler": "exchange-cex.findOne",
      "config": {
        "policies": []
      }
    },
    {
      "method": "POST",
      "path": "/exchange-cexes",
      "handler": "exchange-cex.create",
      "config": {
        "policies": []
      }
    },
    {
      "method": "PUT",
      "path": "/exchange-cexes/:id",
      "handler": "exchange-cex.update",
      "config": {
        "policies": []
      }
    },
    {
      "method": "DELETE",
      "path": "/exchange-cexes/:id",
      "handler": "exchange-cex.delete",
      "config": {
        "policies": []
      }
    }
  ]
}
