{
  "routes": [
    {
      "method": "GET",
      "path": "/axie-tools",
      "handler": "axie-tool.find",
      "config": {
        "policies": []
      }
    },
    {
      "method": "GET",
      "path": "/axie-tools/count",
      "handler": "axie-tool.count",
      "config": {
        "policies": []
      }
    },
    {
      "method": "GET",
      "path": "/axie-tools/:id",
      "handler": "axie-tool.findOne",
      "config": {
        "policies": []
      }
    },
    {
      "method": "POST",
      "path": "/axie-tools",
      "handler": "axie-tool.create",
      "config": {
        "policies": []
      }
    },
    {
      "method": "PUT",
      "path": "/axie-tools/:id",
      "handler": "axie-tool.update",
      "config": {
        "policies": []
      }
    },
    {
      "method": "DELETE",
      "path": "/axie-tools/:id",
      "handler": "axie-tool.delete",
      "config": {
        "policies": []
      }
    }
  ]
}
